<?xml version="1.0" encoding="utf-8"?>
<!-- Generator: Adobe Illustrator 16.2.0, SVG Export Plug-In . SVG Version: 6.00 Build 0)  -->
<!DOCTYPE svg PUBLIC "-//W3C//DTD SVG 1.1//EN" "http://www.w3.org/Graphics/SVG/1.1/DTD/svg11.dtd">
<svg version="1.1" id="Слой_1" xmlns="http://www.w3.org/2000/svg" xmlns:xlink="http://www.w3.org/1999/xlink" x="0px" y="0px"
	 width="124px" height="163px" viewBox="0 0 124 163" enable-background="new 0 0 124 163" xml:space="preserve">
<path fill-rule="evenodd" clip-rule="evenodd" d="M118,146.99902h-2v2c0,3.31348-2.68652,6-6,6h-2v2
	C108,160.3125,105.31348,163,102,163H6c-3.31396,0-6-2.6875-6-6.00098V21.99951c0-3.31396,2.68604-6.00049,6-6.00049h2v-1.99951
	C8,10.68555,10.68604,8,14,8h1.99951V5.99902c0-3.31348,2.68652-5.99951,6.00049-5.99951h96c3.31348,0,6,2.68604,6,5.99951v135
	C124,144.3125,121.31348,146.99902,118,146.99902z M6,17.99902c-2.20947,0-4.00049,1.79102-4.00049,4.00049v134.99951
	c0,2.20898,1.79102,4,4.00049,4h96c2.20898,0,4-1.79102,4-4V21.99951c0-2.20947-1.79102-4.00049-4-4.00049H6z M14,9.99902
	c-2.20947,0-4.00049,1.79102-4.00049,4.00049v1.99951H102c3.31348,0,6,2.68652,6,6.00049v130.99951h2c2.20898,0,4-1.79004,4-4
	V13.99951c0-2.20947-1.79102-4.00049-4-4.00049H14z M122,5.99902c0-2.20898-1.79102-4.00049-4-4.00049H22
	c-2.20947,0-4.00049,1.7915-4.00049,4.00049V8H110c3.31348,0,6,2.68555,6,5.99951v130.99951h2c2.20898,0,4-1.79102,4-4V5.99902z
	 M11.47559,27.99902h47.04785c1.36768,0,2.47607,0.56006,2.47607,1.25v2.5c0,0.68994-1.1084,1.25-2.47607,1.25H11.47559
	c-1.36719,0-2.47607-0.56006-2.47607-1.25v-2.5C8.99951,28.55908,10.1084,27.99902,11.47559,27.99902z M10.9043,36.99902h36.19092
	c1.05176,0,1.90479,0.56006,1.90479,1.25v2.49951c0,0.69092-0.85303,1.25098-1.90479,1.25098H10.9043
	c-1.05176,0-1.90479-0.56006-1.90479-1.25098v-2.49951C8.99951,37.55908,9.85254,36.99902,10.9043,36.99902z M9.89502,51h75.20947
	C85.59961,51,86,51.29736,86,51.66602v0.6665c0,0.36768-0.40039,0.6665-0.89551,0.6665H9.89502
	c-0.49463,0-0.89551-0.29883-0.89551-0.6665v-0.6665C8.99951,51.29736,9.40039,51,9.89502,51z M10,55.99951h84
	c0.55273,0,1,0.29834,1,0.6665v0.6665c0,0.36768-0.44727,0.6665-1,0.6665H10c-0.55273,0-1.00049-0.29883-1.00049-0.6665v-0.6665
	C8.99951,56.29785,9.44727,55.99951,10,55.99951z M9.92969,60.99951h78.13965c0.51367,0,0.93066,0.29834,0.93066,0.6665v0.66602
	c0,0.36914-0.41699,0.66699-0.93066,0.66699H9.92969c-0.51367,0-0.93018-0.29785-0.93018-0.66699v-0.66602
	C8.99951,61.29785,9.41602,60.99951,9.92969,60.99951z M10,65.99902h84c0.55273,0,1,0.29883,1,0.6665v0.66797
	c0,0.3667-0.44727,0.66553-1,0.66553H10c-0.55273,0-1.00049-0.29883-1.00049-0.66553v-0.66797
	C8.99951,66.29785,9.44727,65.99902,10,65.99902z M9.76709,70.99902h64.46533c0.42383,0,0.76758,0.29883,0.76758,0.6665v0.6665
	c0,0.36914-0.34375,0.66748-0.76758,0.66748H9.76709c-0.42383,0-0.76758-0.29834-0.76758-0.66748v-0.6665
	C8.99951,71.29785,9.34326,70.99902,9.76709,70.99902z M9.95313,78.99902H90.0459c0.52637,0,0.9541,0.29883,0.9541,0.66602v0.66797
	c0,0.3667-0.42773,0.66553-0.9541,0.66553H9.95313c-0.52637,0-0.95361-0.29883-0.95361-0.66553v-0.66797
	C8.99951,79.29785,9.42676,78.99902,9.95313,78.99902z M9.89502,83.99902h75.20947c0.49512,0,0.89551,0.29785,0.89551,0.66602
	v0.66699C86,85.70117,85.59961,86,85.10449,86H9.89502c-0.49463,0-0.89551-0.29883-0.89551-0.66797v-0.66699
	C8.99951,84.29688,9.40039,83.99902,9.89502,83.99902z M9.92969,88.99902h78.13965c0.51367,0,0.93066,0.29785,0.93066,0.66699
	v0.66699C89,90.70117,88.58301,91,88.06934,91H9.92969c-0.51367,0-0.93018-0.29883-0.93018-0.66699v-0.66699
	C8.99951,89.29688,9.41602,88.99902,9.92969,88.99902z M9.89502,94h75.20947C85.59961,94,86,94.29688,86,94.66602v0.66699
	C86,95.70117,85.59961,96,85.10449,96H9.89502c-0.49463,0-0.89551-0.29883-0.89551-0.66699v-0.66699
	C8.99951,94.29688,9.40039,94,9.89502,94z M9.83691,99h70.3252C80.625,99,81,99.29883,81,99.66602v0.66602
	C81,100.70117,80.625,101,80.16211,101H9.83691c-0.4624,0-0.8374-0.29883-0.8374-0.66797v-0.66602
	C8.99951,99.29883,9.37451,99,9.83691,99z M31,116.99902V147H21v-30.00098H31z M42,120v27H32v-27H42z M53,112v35H43v-35H53z
	 M64,126.99902V147H54v-20.00098H64z M75,140.99902V147H65v-6.00098H75z M86,117.99902V147H76v-29.00098H86z M95,151H10.99951v-2H95
	V151z"/>
</svg>
