<?xml version="1.0" encoding="utf-8"?>
<!-- Generator: Adobe Illustrator 16.2.0, SVG Export Plug-In . SVG Version: 6.00 Build 0)  -->
<!DOCTYPE svg PUBLIC "-//W3C//DTD SVG 1.1//EN" "http://www.w3.org/Graphics/SVG/1.1/DTD/svg11.dtd">
<svg version="1.1" id="Layer_1" xmlns="http://www.w3.org/2000/svg" xmlns:xlink="http://www.w3.org/1999/xlink" x="0px" y="0px"
	 width="319.39648px" height="99.17383px" viewBox="0 0 319.39648 99.17383" enable-background="new 0 0 319.39648 99.17383"
	 xml:space="preserve">
<polygon fill="#80C3E6" points="75.6499,41.43115 95.55713,9.58203 47.6748,9.58203 41.05811,20.1958 "/>
<polygon opacity="0.15" enable-background="new    " points="41.06201,20.1958 44.4502,14.74707 75.65381,41.43115 "/>
<polygon fill="#E25630" points="86.1792,99.17383 86.1792,51.29395 75.8501,44.83789 54.12891,79.14746 "/>
<polygon opacity="0.15" enable-background="new    " points="54.12891,79.14551 59.49512,82.49609 75.85107,44.83789 "/>
<polygon fill="#ADD155" points="9.05811,0 9.05811,47.88086 20.13818,54.33594 75.64209,41.4248 "/>
<polygon fill="#ADD155" points="19.90479,57.9873 0,89.29883 47.88086,89.29883 75.85596,44.83789 "/>
<g>
	<path d="M104.71582,72.14941h6.20117l3.1709-39.0874h-6.3418V27.6001h14.0918l12.75293,30.50439
		c0.77539,2.05762,1.12842,3.61719,1.12842,3.61719h0.14063c0,0,0.35303-1.56055,1.12793-3.61719l12.75244-30.50439h14.09082
		v5.46289h-6.34082l3.1709,39.08838h6.19922v5.5332H147.6958v-5.53516h5.98926l-2.25488-29.9375
		c-0.07031-1.56104,0.21191-4.11279,0.21191-4.11279h-0.21191c0,0-0.56299,2.41162-1.12695,3.83008l-11.41309,26.31885h-6.2002
		l-11.41602-26.31787c-0.56299-1.41797-1.12695-3.83008-1.12695-3.83008h-0.21191c0,0,0.28174,2.55273,0.21191,4.11279
		l-2.25488,29.93848h5.98779v5.5332h-19.16504v-5.53516H104.71582z"/>
	<path d="M196.31738,26.74902c14.375,0,25.57617,11.13672,25.57617,25.53711c0,14.75586-11.20117,26.24902-25.57617,26.24902
		c-14.44238,0-25.5752-11.49316-25.5752-26.24902C170.74219,37.88574,181.875,26.74902,196.31738,26.74902z M196.31738,72.22168
		c10.07617,0,18.25-8.65625,18.25-19.93555c0-10.92432-8.17383-19.29492-18.25-19.29492
		C186.17188,32.99121,178,41.36182,178,52.28613C178,63.56543,186.17285,72.22168,196.31738,72.22168z"/>
	<path d="M226.58594,72.14941h6.20117v-39.0874h-6.20117V27.6001h21.20898c4.15625,0,7.25684,0.21289,10.56738,1.20605
		c9.51367,2.979,15.71387,11.63477,15.71387,23.83545c0,12.13086-5.98926,20.57324-15.71387,23.69434
		c-3.24023,1.06348-6.55273,1.34863-10.49707,1.34863h-21.2793V72.14941z M247.44238,71.86621
		c3.24023,0,5.91797-0.28418,8.45508-1.27637c6.69238-2.3418,10.85059-8.79688,10.85059-17.94824
		c0-9.22266-4.15723-15.67773-10.77832-18.08984c-2.74805-0.99268-5.28516-1.13477-8.52734-1.13477h-7.60938v38.44922H247.44238z"/>
	<path d="M276.55762,72.14941h4.64941l12.82422-19.79297l-12.6123-19.29443h-4.58105V27.6001h15.75195v5.46289h-3.70215
		l8.24316,13.12402c0.77539,1.06396,1.26855,1.98584,1.26855,1.98584h0.14258c0,0,0.42285-0.92188,1.19629-1.98584l7.96289-13.12402
		h-3.56348V27.6001h15.26074v5.46289h-4.65039l-12.89551,19.93506l12.68457,19.15332h4.7207v5.5332h-15.75195v-5.53516h3.63184
		l-8.31348-13.05273c-0.77539-1.13574-1.26855-2.05762-1.26855-2.05762h-0.14063c-0.07031,0-0.42285,0.92188-1.12695,2.05762
		l-8.03418,13.05273h3.63379v5.5332h-15.32813v-5.5332H276.55762z"/>
</g>
</svg>
